{
   "entrypoint": "index.html",
   "moduleResolution": "node",
   "npm": true,   
   "shell": "app/app.js",
   "sources": [
     "images/**/*"
   ],
   "extraDependencies": [
     "manifest.json",
     "node_modules/@webcomponents/webcomponentsjs/**"
   ]
}